src/dpteste.vcd
$date
	Tue Jun  6 23:24:29 2023
$end
$version
	Icarus Verilog
$end
$timescale
	1ps
$end
$scope module datapath_tb $end
$var wire 1 ! endFile $end
$var reg 1 " clockDP_ $end
$var reg 201 # nomeArquivoInstDP_ [200:0] $end
$var reg 1 $ resetDP_ $end
$var reg 32 % valorReg [31:0] $end
$var integer 32 & i [31:0] $end
$scope module dpR5 $end
$var wire 1 ' andOutDP $end
$var wire 1 " clockDP $end
$var wire 201 ( nomeArquivoDP [200:0] $end
$var wire 1 $ resetDP $end
$var wire 32 ) writeRegDataDP [31:0] $end
$var wire 1 * regWriteDP $end
$var wire 32 + readMemDP [31:0] $end
$var wire 32 , readData2DP [31:0] $end
$var wire 32 - readData1DP [31:0] $end
$var wire 32 . pcOutDP [31:0] $end
$var wire 32 / pcInDP [31:0] $end
$var wire 32 0 muxAluOutDP [31:0] $end
$var wire 1 1 memWriteDP $end
$var wire 1 2 memToRegDP $end
$var wire 1 3 memReadDP $end
$var wire 32 4 instructionDP [31:0] $end
$var wire 32 5 immGenOutDP [31:0] $end
$var wire 4 6 f3f7AluCtrlDP [3:0] $end
$var wire 1 ! endFile $end
$var wire 1 7 branchDP $end
$var wire 1 8 aluZeroDP $end
$var wire 1 9 aluSrcDP $end
$var wire 32 : aluOutDP [31:0] $end
$var wire 2 ; aluOpDP [1:0] $end
$var wire 4 < aluCtrlDP [3:0] $end
$var wire 32 = addBranchDP [31:0] $end
$var wire 32 > add4OutDP [31:0] $end
$scope module add4 $end
$var wire 32 ? a [31:0] $end
$var wire 32 @ out [31:0] $end
$var wire 32 A b [31:0] $end
$upscope $end
$scope module addBranch $end
$var wire 32 B out [31:0] $end
$var wire 32 C b [31:0] $end
$var wire 32 D a [31:0] $end
$upscope $end
$scope module alu $end
$var wire 1 8 zeroAlu $end
$var wire 32 E aluInput2 [31:0] $end
$var wire 32 F aluInput1 [31:0] $end
$var wire 4 G aluControlAlu [3:0] $end
$var reg 32 H aluResultAlu [31:0] $end
$upscope $end
$scope module aluControl $end
$var wire 4 I f3f7ACtrl [3:0] $end
$var wire 1 J funct7ACtrl $end
$var wire 3 K funct3ACtrl [2:0] $end
$var wire 2 L aluOpACtrl [1:0] $end
$var reg 4 M aluCtrlACtrl [3:0] $end
$upscope $end
$scope module ctrlDP $end
$var wire 7 N instructionCtrl [6:0] $end
$var wire 1 * RegWriteCtrl $end
$var wire 1 1 MemWriteCtrl $end
$var wire 1 2 MemToRegCtrl $end
$var wire 1 3 MemReadCtrl $end
$var wire 1 7 BranchCtrl $end
$var wire 1 9 ALUSrcCtrl $end
$var wire 2 O ALUOpCtrl [1:0] $end
$var reg 8 P outputCtrl [7:0] $end
$upscope $end
$scope module dataMem $end
$var wire 32 Q addressDM [31:0] $end
$var wire 1 " clock $end
$var wire 1 3 memReadDM $end
$var wire 1 1 memWriteDM $end
$var wire 32 R writeDataDM [31:0] $end
$var reg 32 S readDataDM [31:0] $end
$upscope $end
$scope module immGen $end
$var wire 32 T instructionImmGen [31:0] $end
$var reg 32 U immediateImmGen [31:0] $end
$upscope $end
$scope module insMem $end
$var wire 201 V nomeArquivo [200:0] $end
$var wire 32 W readAddress [31:0] $end
$var reg 1 ! fimDoArquivo $end
$var reg 32 X instruction [31:0] $end
$var reg 32 Y linha [31:0] $end
$var integer 32 Z arquivo [31:0] $end
$var integer 32 [ error [31:0] $end
$upscope $end
$scope module muxAdds $end
$var wire 1 ' ctrl $end
$var wire 32 \ input1 [31:0] $end
$var wire 32 ] input2 [31:0] $end
$var wire 32 ^ out [31:0] $end
$upscope $end
$scope module muxAlu $end
$var wire 1 9 ctrl $end
$var wire 32 _ input2 [31:0] $end
$var wire 32 ` out [31:0] $end
$var wire 32 a input1 [31:0] $end
$upscope $end
$scope module muxDataMem $end
$var wire 1 2 ctrl $end
$var wire 32 b input1 [31:0] $end
$var wire 32 c input2 [31:0] $end
$var wire 32 d out [31:0] $end
$upscope $end
$scope module pcDP $end
$var wire 1 " clock $end
$var wire 32 e pcIn [31:0] $end
$var wire 1 $ reset $end
$var reg 32 f pcOut [31:0] $end
$upscope $end
$scope module regMem $end
$var wire 1 " clock $end
$var wire 5 g readReg1 [4:0] $end
$var wire 5 h readReg2 [4:0] $end
$var wire 1 * regWrite $end
$var wire 32 i writeData [31:0] $end
$var wire 5 j writeRegId [4:0] $end
$var reg 32 k readData1 [31:0] $end
$var reg 32 l readData2 [31:0] $end
$var integer 32 m i [31:0] $end
$upscope $end
$upscope $end
$upscope $end
$enddefinitions $end
$comment Show the parameter values. $end
$dumpall
$end
#0
$dumpvars
b100000 m
bx l
bx k
bx j
bx i
bx h
bx g
bx f
bx e
bx d
bx c
bx b
bx a
bx `
bx _
bx ^
bx ]
bx \
bx [
b10000000000000000000000000000011 Z
bx Y
bx X
bx W
b11010010110111001110000011101010111010001000100010100000011001000101110011101000111100001110100 V
bx U
bx T
bx S
bx R
bx Q
bx P
bx O
bx N
bx M
bx L
bx K
xJ
bx I
bx H
bx G
bx F
bx E
bx D
bx C
bx B
bx A
bx @
b100 ?
bx >
bx =
bx <
bx ;
bx :
x9
x8
x7
bx 6
bx 5
bx 4
x3
x2
x1
bx 0
bx /
bx .
bx -
bx ,
bx +
x*
bx )
b11010010110111001110000011101010111010001000100010100000011001000101110011101000111100001110100 (
x'
bx &
bx %
0$
b11010010110111001110000011101010111010001000100010100000011001000101110011101000111100001110100 #
0"
x!
$end
#1000
08
b111 )
b111 d
b111 i
b10 <
b10 G
b10 M
b111 :
b111 H
b111 Q
b111 b
0'
19
02
1*
03
01
07
b0 ;
b0 L
b0 O
b111 0
b111 E
b111 `
b100 /
b100 ^
b100 e
b0 -
b0 F
b0 k
b0 ,
b0 R
b0 a
b0 l
b10100000 P
b111 =
b111 B
b111 ]
b111 5
b111 C
b111 U
b111 _
b0 K
0J
b10 j
b111 h
b0 g
b10011 N
b0 6
b0 I
b11100000000000100010011 4
b11100000000000100010011 T
b11100000000000100010011 X
b11100000000000100010011 Y
b1 [
b100 >
b100 @
b100 \
b0 .
b0 A
b0 D
b0 W
b0 f
1"
#2000
0"
#3000
1"
#4000
0"
#5000
b100000 )
b100000 d
b100000 i
b100000 :
b100000 H
b100000 Q
b100000 b
b100000 0
b100000 E
b100000 `
b100000 5
b100000 C
b100000 U
b100000 _
b11 j
b0 h
b1000 /
b1000 ^
b1000 e
b10000000000000000110010011 4
b10000000000000000110010011 T
b10000000000000000110010011 X
b10000000000000000110010011 Y
b1 [
b100100 =
b100100 B
b100100 ]
b1000 >
b1000 @
b1000 \
b100 .
b100 A
b100 D
b100 W
b100 f
1"
1$
#6000
0"
#7000
b11 )
b11 d
b11 i
b11 :
b11 H
b11 Q
b11 b
b11 0
b11 E
b11 `
b100000 ,
b100000 R
b100000 a
b100000 l
b11 5
b11 C
b11 U
b11 _
b100 j
b11 h
b1100 /
b1100 ^
b1100 e
b1100000000001000010011 4
b1100000000001000010011 T
b1100000000001000010011 X
b1100000000001000010011 Y
b1 [
b1011 =
b1011 B
b1011 ]
b1100 >
b1100 @
b1100 \
b1000 .
b1000 A
b1000 D
b1000 W
b1000 f
1"
#8000
0"
#9000
b100 )
b100 d
b100 i
b100 <
b100 G
b100 M
b100 :
b100 H
b100 Q
b100 b
09
b10 ;
b10 L
b10 O
b11 0
b11 E
b11 `
b100000 -
b100000 F
b100000 k
b11 ,
b11 R
b11 a
b11 l
b100010 P
bx 5
bx C
bx U
bx _
b101 K
b11 j
b100 h
b11 g
b110011 N
b101 6
b101 I
b10000 /
b10000 ^
b10000 e
b10000011101000110110011 4
b10000011101000110110011 T
b10000011101000110110011 X
b10000011101000110110011 Y
b1 [
bx =
bx B
bx ]
b10000 >
b10000 @
b10000 \
b1100 .
b1100 A
b1100 D
b1100 W
b1100 f
1"
#10000
0"
#11000
b10 <
b10 G
b10 M
b100 :
b100 H
b100 Q
b100 b
b0 0
b0 E
b0 `
19
0*
11
b0 ;
b0 L
b0 O
b111 ,
b111 R
b111 a
b111 l
b10001000 P
b10000 =
b10000 B
b10000 ]
b0 5
b0 C
b0 U
b0 _
b100 -
b100 F
b100 k
b10 K
b0 j
b10 h
b100011 N
b10 6
b10 I
b10100 /
b10100 ^
b10100 e
b1000011010000000100011 4
b1000011010000000100011 T
b1000011010000000100011 X
b1000011010000000100011 Y
b1 [
b10100 >
b10100 @
b10100 \
b10000 .
b10000 A
b10000 D
b10000 W
b10000 f
1"
#12000
0"
#13000
b111 )
b111 d
b111 i
b111 +
b111 S
b111 c
12
1*
13
01
b0 ,
b0 R
b0 a
b0 l
b11110000 P
b1 j
b0 h
b11 N
b11000 /
b11000 ^
b11000 e
b11010000010000011 4
b11010000010000011 T
b11010000010000011 X
b11010000010000011 Y
b1 [
b10100 =
b10100 B
b10100 ]
b11000 >
b11000 @
b11000 \
b10100 .
b10100 A
b10100 D
b10100 W
b10100 f
1"
#14000
0"
#15000
b1110 :
b1110 H
b1110 Q
b1110 b
b1110 )
b1110 d
b1110 i
02
03
b111 0
b111 E
b111 `
b111 -
b111 F
b111 k
b10100000 P
b111 5
b111 C
b111 U
b111 _
b0 K
b111 h
b1 g
b10011 N
b0 6
b0 I
b11100 /
b11100 ^
b11100 e
b11100001000000010010011 4
b11100001000000010010011 T
b11100001000000010010011 X
b11100001000000010010011 Y
b1 [
b11111 =
b11111 B
b11111 ]
b11100 >
b11100 @
b11100 \
b11000 .
b11000 A
b11000 D
b11000 W
b11000 f
1"
#16000
0"
#17000
b10101 )
b10101 d
b10101 i
b10101 :
b10101 H
b10101 Q
b10101 b
b1110 -
b1110 F
b1110 k
b100000 /
b100000 ^
b100000 e
b1 [
b100011 =
b100011 B
b100011 ]
b100000 >
b100000 @
b100000 \
b11100 .
b11100 A
b11100 D
b11100 W
b11100 f
1"
#18000
0"
#19000
b1110 )
b1110 d
b1110 i
b110 <
b110 G
b110 M
b1110 :
b1110 H
b1110 Q
b1110 b
09
b10 ;
b10 L
b10 O
b111 0
b111 E
b111 `
b111 ,
b111 R
b111 a
b111 l
b100010 P
bx 5
bx C
bx U
bx _
b10101 -
b10101 F
b10101 k
1J
b10 h
b110011 N
b1000 6
b1000 I
b100100 /
b100100 ^
b100100 e
b1000000001000001000000010110011 4
b1000000001000001000000010110011 T
b1000000001000001000000010110011 X
b1000000001000001000000010110011 Y
b1 [
bx =
bx B
bx ]
b100100 >
b100100 @
b100100 \
b100000 .
b100000 A
b100000 D
b100000 W
b100000 f
1"
#20000
0"
#21000
b111 )
b111 d
b111 i
b111 :
b111 H
b111 Q
b111 b
b1110 -
b1110 F
b1110 k
b101000 /
b101000 ^
b101000 e
b1 [
b101000 >
b101000 @
b101000 \
b100100 .
b100100 A
b100100 D
b100100 W
b100100 f
1"
#22000
0"
#23000
1'
18
b0 )
b0 d
b0 i
b0 :
b0 H
b0 Q
b0 b
0*
17
b1 ;
b1 L
b1 O
b101 P
b110100 =
b110100 B
b110100 ]
b1100 5
b1100 C
b1100 U
b1100 _
b111 -
b111 F
b111 k
0J
b1100 j
b1100011 N
b0 6
b0 I
b110100 /
b110100 ^
b110100 e
b1000001000011001100011 4
b1000001000011001100011 T
b1000001000011001100011 X
b1000001000011001100011 Y
b1 [
b101100 >
b101100 @
b101100 \
b101000 .
b101000 A
b101000 D
b101000 W
b101000 f
1"
#24000
0"
#25000
08
b111 )
b111 d
b111 i
b111 :
b111 H
b111 Q
b111 b
b11 <
b11 G
b11 M
0'
b0 0
b0 E
b0 `
1*
07
b10 ;
b10 L
b10 O
b0 ,
b0 R
b0 a
b0 l
b100010 P
bx 5
bx C
bx U
bx _
b100 K
b1 j
b0 h
b110011 N
b100 6
b100 I
b111000 /
b111000 ^
b111000 e
b1100000010110011 4
b1100000010110011 T
b1100000010110011 X
b1100000010110011 Y
b1 [
bx =
bx B
bx ]
b111000 >
b111000 @
b111000 \
b110100 .
b110100 A
b110100 D
b110100 W
b110100 f
1"
#26000
0"
#27000
18
b0 )
b0 d
b0 i
b0 :
b0 H
b0 Q
b0 b
b10 <
b10 G
b10 M
b0 0
b0 E
b0 `
19
0*
11
b0 ;
b0 L
b0 O
b0 -
b0 F
b0 k
b111 ,
b111 R
b111 a
b111 l
b10001000 P
b111000 =
b111000 B
b111000 ]
b0 5
b0 C
b0 U
b0 _
b10 K
b0 j
b1 h
b0 g
b100011 N
b10 6
b10 I
b111100 /
b111100 ^
b111100 e
b100000010000000100011 4
b100000010000000100011 T
b100000010000000100011 X
b100000010000000100011 Y
b1 [
b111100 >
b111100 @
b111100 \
b111000 .
b111000 A
b111000 D
b111000 W
b111000 f
1"
#28000
0"
#29000
b111 )
b111 d
b111 i
12
1*
13
01
b0 ,
b0 R
b0 a
b0 l
b11110000 P
b101 j
b0 h
b11 N
b1000000 /
b1000000 ^
b1000000 e
b10001010000011 4
b10001010000011 T
b10001010000011 X
b10001010000011 Y
b1 [
b111100 =
b111100 B
b111100 ]
b1000000 >
b1000000 @
b1000000 \
b111100 .
b111100 A
b111100 D
b111100 W
b111100 f
1"
#30000
0"
#31000
x8
bx :
bx H
bx Q
bx b
bx )
bx d
bx i
x'
x9
x2
x*
x3
x1
x7
bx ;
bx L
bx O
bx 0
bx E
bx `
bx P
bx 5
bx C
bx U
bx _
b0 K
b0 j
b0 N
b0 6
b0 I
bx /
bx ^
bx e
b0 4
b0 T
b0 X
b11111111111111111111111111111111 [
bx =
bx B
bx ]
b1000100 >
b1000100 @
b1000100 \
b1000000 .
b1000000 A
b1000000 D
b1000000 W
b1000000 f
1"
#32000
0"
#33000
1!
bx >
bx @
bx \
bx .
bx A
bx D
bx W
bx f
1"
#34000
0"
b0 %
b100000 &
